<?xml version="1.0" encoding="utf-8"?>
<svg width='70px' height='70px' xmlns="http://www.w3.org/2000/svg" viewBox="0 0 100 100" preserveAspectRatio="xMidYMid" class="uil-wheel">
  <rect x="0" y="0" width="100" height="100" fill="none" class="bk"></rect>
  <circle cx="50" cy="50" r="40" fill="none" stroke-width="20" stroke="#407CBA" stroke-dasharray="14px">
    <animate attributeName="stroke-dashoffset" from="0" to="110" begin="0" dur="1s" repeatCount="indefinite" fill="freeze"></animate>
  </circle>
</svg>